{
  "total": 100,
  "per_page": "10",
  "current_page": 1,
  "last_page": 10,
  "next_page_url": "http://assignments.tgn.localhost.com/api/section-assignments?page=2",
  "prev_page_url": null,
  "from": 1,
  "to": 10,
  "data": [
    {
      "id": 84,
      "assignment_id": 45,
      "section_id": 48,
      "student_work_url": null,
      "submitted_at": null,
      "deleted_at": null,
      "created_at": "2016-07-11 13:55:35",
      "updated_at": "2016-07-11 13:55:55",
      "graider_id": null,
      "status": "Completed",
      "completed_at": null,
      "graider_reported_hours_to_grade": null,
      "assignment": {
        "id": 45,
        "name": "Voluptatem velit possimus earum et ea perferendis perferendis.",
        "class_id": 17,
        "teacher_id": 39,
        "description": "Enim dicta et quis alias culpa numquam. Quod atque voluptas sit voluptatem quos similique eos. Dolores reiciendis et nam dignissimos quo.",
        "other_information": "A quo optio fugit a nulla. Explicabo veniam voluptates perferendis consequatur ut. Sunt ut quia quo debitis hic fugit. Facilis culpa dolorem et nostrum qui.",
        "due_at": "2016-04-21 05:31:35",
        "minutes_per_student": "19",
        "prompt_url": "http://www.schaden.com/",
        "rubric_url": "http://www.mertz.net/architecto-quis-cum-sint.html",
        "deleted_at": null,
        "created_at": "2016-07-11 13:55:29",
        "updated_at": "2016-07-11 13:55:29",
        "work_format": "Typed",
        "feedback_on_assignment": 0,
        "feedback_in_report": 0,
        "gradesheet_url": "http://cremin.com/totam-consequatur-corrupti-neque-corrupti-sit-sed",
        "start_at": "2015-10-10 01:43:40",
        "feedback_grades": 0
      }
    },
    {
      "id": 86,
      "assignment_id": 41,
      "section_id": 28,
      "student_work_url": "http://www.harber.com/",
      "submitted_at": "2015-12-24 00:45:39",
      "deleted_at": null,
      "created_at": "2016-07-11 13:55:36",
      "updated_at": "2016-07-11 13:55:36",
      "graider_id": 26,
      "status": "Awaiting Review",
      "completed_at": "2016-07-22 04:05:44",
      "graider_reported_hours_to_grade": "3",
      "assignment": {
        "id": 41,
        "name": "Perspiciatis dolorum accusantium ut voluptas corrupti nulla dolorem.",
        "class_id": 4,
        "teacher_id": 25,
        "description": "Quia blanditiis rem est enim et quia. Alias fugiat placeat quo qui. Expedita earum maiores aliquid quia sed optio ipsum officiis. Aliquid eius voluptatem voluptatibus quae voluptatum.",
        "other_information": "Nihil occaecati recusandae officiis adipisci nesciunt impedit magni ratione. Sint nulla sequi quia neque. Itaque nulla et odio in. Dolore perferendis quos ab nihil.",
        "due_at": "2016-05-29 05:17:41",
        "minutes_per_student": "19",
        "prompt_url": "http://www.ward.com/et-accusantium-temporibus-inventore-iure-velit",
        "rubric_url": "http://www.durgan.net/",
        "deleted_at": null,
        "created_at": "2016-07-11 13:55:29",
        "updated_at": "2016-07-11 13:55:29",
        "work_format": "Typed",
        "feedback_on_assignment": 1,
        "feedback_in_report": 1,
        "gradesheet_url": "http://eichmann.org/architecto-fuga-soluta-dolorum-iste",
        "start_at": "2015-12-15 09:22:14",
        "feedback_grades": 0
      }
    },
    {
      "id": 87,
      "assignment_id": 45,
      "section_id": 7,
      "student_work_url": "http://braun.org/eaque-amet-voluptatum-labore-doloremque-et-in.html",
      "submitted_at": "2016-02-15 04:22:13",
      "deleted_at": null,
      "created_at": "2016-07-11 13:55:36",
      "updated_at": "2016-07-11 13:55:36",
      "graider_id": 7,
      "status": "In Progress",
      "completed_at": "2016-12-11 16:35:37",
      "graider_reported_hours_to_grade": "1",
      "assignment": {
        "id": 45,
        "name": "Voluptatem velit possimus earum et ea perferendis perferendis.",
        "class_id": 17,
        "teacher_id": 39,
        "description": "Enim dicta et quis alias culpa numquam. Quod atque voluptas sit voluptatem quos similique eos. Dolores reiciendis et nam dignissimos quo.",
        "other_information": "A quo optio fugit a nulla. Explicabo veniam voluptates perferendis consequatur ut. Sunt ut quia quo debitis hic fugit. Facilis culpa dolorem et nostrum qui.",
        "due_at": "2016-04-21 05:31:35",
        "minutes_per_student": "19",
        "prompt_url": "http://www.schaden.com/",
        "rubric_url": "http://www.mertz.net/architecto-quis-cum-sint.html",
        "deleted_at": null,
        "created_at": "2016-07-11 13:55:29",
        "updated_at": "2016-07-11 13:55:29",
        "work_format": "Typed",
        "feedback_on_assignment": 0,
        "feedback_in_report": 0,
        "gradesheet_url": "http://cremin.com/totam-consequatur-corrupti-neque-corrupti-sit-sed",
        "start_at": "2015-10-10 01:43:40",
        "feedback_grades": 0
      }
    }
  ]
}
