[
  {
    "id": 1,
    "name": "Math",
    "deleted_at": null,
    "created_at": "2016-07-01 23:59:52",
    "updated_at": "2016-07-01 23:59:52"
  },
  {
    "id": 2,
    "name": "English",
    "deleted_at": null,
    "created_at": "2016-07-01 23:59:52",
    "updated_at": "2016-07-01 23:59:52"
  }
]
